{
    "facebook": "https:\/\/facebook.com",
    "twitter": "https:\/\/twitter.com",
    "instagram": "https:\/\/instagram.com",
    "meta-description": "I have no meta description",
    "meta-keywords": "keyword1, keyword2, keyword3",
    "meta-image": "http:\/\/www.namoraltv.com.br\/assets\/images\/page-not-found.png",
    "meta-title": "Calll me \"Title\"",
    "facebookId": "102856253593921",
    "facebookAppSecret": "b2c35922552a233a8a1efc1505e2b72b",
    "facebookUrlLogin": "https:\/\/bundakonicare.com\/",
    "recaptchaSecretKey": "6LfDKyQUAAAAADh8PJcf9_mhZ7BfgNj14vTMmFur",
    "recaptchaSiteKey": "6LfDKyQUAAAAAGilsM68ge6yVB9LTj8Lge8numvf"
}